Creating denominator cohorts • IncidencePrevalence
…
With attrition() we can see the number of individuals in
the database who were excluded from entering a given denominator
population along with the reason (such as missing crucial information or
not satisfying the sex or age criteria required, among others):

attrition(cdm$denominator)
#> # A tibble: 72 × 5
#>    current_n reason                                        exclu…¹ cohor…² step 
#>        <dbl> <glue>                                          <dbl>   <int> <chr>
#>  1       500 Starting population                                NA       1 Gene…
#>  2       500 Missing year of birth                               0       1 Gene…
#>  3       500 Missing sex                                         0       1 Gene…
#>  4       500 Cannot satisfy age criteria during the study…       0       1 Gene…
#>  5       106 No observation time available during study p…     394       1 Gene…
#>  6       106 Doesn't satisfy age criteria during the stud…       0       1 Gene…
#>  7       106 Prior history requirement not fulfilled duri…       0       1 Gene…
#>  8        50 Not Male                                           56       1 Gene…
#>  9         5 No observation time available after applying…      45       1 Gene…
#> 10       500 Starting population                                NA       2 Gene…
#> # … with 62 more rows, and abbreviated variable names ¹​excluded,
#> #   ²​cohort_definition_id
…
